Baseball
…
Batting %>%
  group_by(name, paperhomerun, war) %>%
  filter(paperhomerun != "Inf") %>%
  summarise() %>%
  arrange(paperhomerun)

## # A tibble: 492 x 3
## # Groups:   name, paperhomerun [492]
##    name             paperhomerun   war
##    <fct>                   <dbl> <dbl>
##  1 Luke Voit                10.7   1.9
##  2 Khris Davis              13.6   2.6
##  3 Max Muncy                13.7   5.2
##  4 Ryan O'Hearn             14.2   0.8
##  5 Joey Gallo               14.4   2.8
##  6 Patrick Wisdom           14.5   0.4
##  7 Franklin Barreto         15     0.2
##  8 J.D. Martinez            15.1   5.9
##  9 Mike Trout               15.6   9.8
## 10 Tyler Austin             15.8   0.3
## # ... with 482 more rows
…
